Visualising
…
Import and check your data

Type the following lines into your script file. Execute your commands as you did in the previous module.

library(readr)
read_csv("data/r4ssp_donations_data.csv")
#> Rows: 50 Columns: 3
#> -- Column specification --------------------------------------------------------
#> Delimiter: ","
#> chr (1): Condition
#> dbl (2): CollectorNumber, Amount
#> 
#> i Use `spec()` to retrieve the full column specification for this data.
#> i Specify the column types or set `show_col_types = FALSE` to quiet this message.
#> # A tibble: 50 x 3
#>    CollectorNumber Amount Condition
#>              <dbl>  <dbl> <chr>    
#>  1               1   190. Puppy    
#>  2               2   178. Puppy    
#>  3               3   178. Puppy    
#>  4               4   210. Puppy    
#>  5               5   188. Puppy    
#>  6               6   199. Puppy    
#>  7               7   180. Puppy    
#>  8               8   195. Puppy    
#>  9               9   186. Puppy    
#> 10              10   233. Puppy    
#> # ... with 40 more rows
…
# Read a csv file into R. Store the result in a named variable
puppy_donations_data <- read_csv("data/r4ssp_donations_data.csv")
#> Rows: 50 Columns: 3
#> -- Column specification --------------------------------------------------------
#> Delimiter: ","
#> chr (1): Condition
#> dbl (2): CollectorNumber, Amount
#> 
#> i Use `spec()` to retrieve the full column specification for this data.
#> i Specify the column types or set `show_col_types = FALSE` to quiet this message.

# As always in R, we can display the contents of a variable by simply typing its name.
puppy_donations_data
#> # A tibble: 50 x 3
#>    CollectorNumber Amount Condition
#>              <dbl>  <dbl> <chr>    
#>  1               1   190. Puppy    
#>  2               2   178. Puppy    
#>  3               3   178. Puppy    
#>  4               4   210. Puppy    
#>  5               5   188. Puppy    
#>  6               6   199. Puppy    
#>  7               7   180. Puppy    
#>  8               8   195. Puppy    
#>  9               9   186. Puppy    
#> 10              10   233. Puppy    
#> # ... with 40 more rows
…
