Transforming
…
The operation that will take us from a wide format to a long format
is pivot_longer from tidyr. It has a
cols parameter where we specify the columns that will be
gathered into 2 named columns - one that will contain the names from the
columns - names_to, the second, will contain the values
that were in the columns - values_to. cols
uses the same syntax as select from dplyr and
if a - is used it will use all the columns not
specified.

# Using the 'positive' selection of columns
gapminder_yearly_pop_long <- gapminder_yearly_pop %>% pivot_longer(cols = `1800`:`2100`, names_to = "year", values_to = "population")
gapminder_yearly_pop_long
#> # A tibble: 59,297 × 3
#>    country     year  population
#>    <chr>       <chr>      <dbl>
#>  1 Afghanistan 1800        3.28
#>  2 Afghanistan 1801        3.28
#>  3 Afghanistan 1802        3.28
#>  4 Afghanistan 1803        3.28
#>  5 Afghanistan 1804        3.28
#>  6 Afghanistan 1805        3.28
#>  7 Afghanistan 1806        3.28
#>  8 Afghanistan 1807        3.28
#>  9 Afghanistan 1808        3.28
#> 10 Afghanistan 1809        3.28
#> # … with 59,287 more rows

# Using the 'negative' selection of columns
gapminder_yearly_pop_long <- gapminder_yearly_pop %>% pivot_longer(cols = -country, names_to = "year", values_to = "population")
gapminder_yearly_pop_long
#> # A tibble: 59,297 × 3
#>    country     year  population
#>    <chr>       <chr>      <dbl>
#>  1 Afghanistan 1800        3.28
#>  2 Afghanistan 1801        3.28
#>  3 Afghanistan 1802        3.28
#>  4 Afghanistan 1803        3.28
#>  5 Afghanistan 1804        3.28
#>  6 Afghanistan 1805        3.28
#>  7 Afghanistan 1806        3.28
#>  8 Afghanistan 1807        3.28
#>  9 Afghanistan 1808        3.28
#> 10 Afghanistan 1809        3.28
#> # … with 59,287 more rows
…
