Handout 3 - Data Transformation with Base R
…
To see how selection with the select function from dplyr compares to selection with the selection operator [ ] in base R, let’s load the flights data frame and repeat some of the exercises from R for Data Science.

# Load the library that contains the flights data frame
library(nycflights13)

# Load dplyr
library(dplyr)

# Select the year, month, and day columns from the flights data frame

# With dplyr
year_month_day_cols_dplyr <- select(flights, year, month, day)
year_month_day_cols_dplyr
#> # A tibble: 336,776 × 3
#>     year month   day
#>    <int> <int> <int>
#>  1  2013     1     1
#>  2  2013     1     1
#>  3  2013     1     1
#>  4  2013     1     1
#>  5  2013     1     1
#>  6  2013     1     1
#>  7  2013     1     1
#>  8  2013     1     1
#>  9  2013     1     1
#> 10  2013     1     1
#> # … with 336,766 more rows

# With base R
year_month_day_cols_base <- flights[ , c("year", "month", "day")]
year_month_day_cols_base
#> # A tibble: 336,776 × 3
#>     year month   day
#>    <int> <int> <int>
#>  1  2013     1     1
#>  2  2013     1     1
#>  3  2013     1     1
#>  4  2013     1     1
#>  5  2013     1     1
#>  6  2013     1     1
#>  7  2013     1     1
#>  8  2013     1     1
#>  9  2013     1     1
#> 10  2013     1     1
#> # … with 336,766 more rows
…
The dplyr function arrange is analogous to base R selection using [ ] combined with function order. We use order as the row information to [ ]. The arguments to order are a comma separated sequence of the columns on which we wish to sort. We identify the columns using the $ operator, in the usual way.

For example, the dplyr statement and the base R statement below both sort the entire flight data frame on the year, month, and day columns:

# Sort using arrange or order

# dplyr
year_month_day_dplyr <- arrange(flights, year, month, day)

# base R – we omit the column index to get all columns in the result
year_month_day_base <- flights[order(flights$year, flights$month, flights$day), ] 

# Compare the results
year_month_day_dplyr
#> # A tibble: 336,776 × 19
#>     year month   day dep_time sched_dep_time dep_delay arr_time sched_arr_time
#>    <int> <int> <int>    <int>          <int>     <dbl>    <int>          <int>
#>  1  2013     1     1      517            515         2      830            819
#>  2  2013     1     1      533            529         4      850            830
#>  3  2013     1     1      542            540         2      923            850
#>  4  2013     1     1      544            545        -1     1004           1022
#>  5  2013     1     1      554            600        -6      812            837
#>  6  2013     1     1      554            558        -4      740            728
#>  7  2013     1     1      555            600        -5      913            854
#>  8  2013     1     1      557            600        -3      709            723
#>  9  2013     1     1      557            600        -3      838            846
#> 10  2013     1     1      558            600        -2      753            745
#> # … with 336,766 more rows, and 11 more variables: arr_delay <dbl>,
#> #   carrier <chr>, flight <int>, tailnum <chr>, origin <chr>, dest <chr>,
#> #   air_time <dbl>, distance <dbl>, hour <dbl>, minute <dbl>, time_hour <dttm>
year_month_day_base
#> # A tibble: 336,776 × 19
#>     year month   day dep_time sched_dep_time dep_delay arr_time sched_arr_time
#>    <int> <int> <int>    <int>          <int>     <dbl>    <int>          <int>
#>  1  2013     1     1      517            515         2      830            819
#>  2  2013     1     1      533            529         4      850            830
#>  3  2013     1     1      542            540         2      923            850
#>  4  2013     1     1      544            545        -1     1004           1022
#>  5  2013     1     1      554            600        -6      812            837
#>  6  2013     1     1      554            558        -4      740            728
#>  7  2013     1     1      555            600        -5      913            854
#>  8  2013     1     1      557            600        -3      709            723
#>  9  2013     1     1      557            600        -3      838            846
#> 10  2013     1     1      558            600        -2      753            745
#> # … with 336,766 more rows, and 11 more variables: arr_delay <dbl>,
#> #   carrier <chr>, flight <int>, tailnum <chr>, origin <chr>, dest <chr>,
#> #   air_time <dbl>, distance <dbl>, hour <dbl>, minute <dbl>, time_hour <dttm>

If you find it tiresome to type the name of the data frame in front of each column in order, use function attach. This function accepts a data frame as its argument. In all subsequent code, you can refer to columns of the data frame without having to preface them with the data frame name and $:

# Call attach
attach(flights)

# Just use the column names; no flights$ needed
year_month_day_base <- flights[order(year, month, day), ]

# Check the result
year_month_day_base
#> # A tibble: 336,776 × 19
#>     year month   day dep_time sched_dep_time dep_delay arr_time sched_arr_time
#>    <int> <int> <int>    <int>          <int>     <dbl>    <int>          <int>
#>  1  2013     1     1      517            515         2      830            819
#>  2  2013     1     1      533            529         4      850            830
#>  3  2013     1     1      542            540         2      923            850
#>  4  2013     1     1      544            545        -1     1004           1022
#>  5  2013     1     1      554            600        -6      812            837
#>  6  2013     1     1      554            558        -4      740            728
#>  7  2013     1     1      555            600        -5      913            854
#>  8  2013     1     1      557            600        -3      709            723
#>  9  2013     1     1      557            600        -3      838            846
#> 10  2013     1     1      558            600        -2      753            745
#> # … with 336,766 more rows, and 11 more variables: arr_delay <dbl>,
#> #   carrier <chr>, flight <int>, tailnum <chr>, origin <chr>, dest <chr>,
#> #   air_time <dbl>, distance <dbl>, hour <dbl>, minute <dbl>, time_hour <dttm>
To turn off the effect of attach, call function detach, passing in the name of the data frame. A more industrial-strength version of the attach-detach behaviour can be achieved with function with. This function has some technical advantages, but has a more complicated syntax. Google for details if you are interested.

By default, order sorts in ascending order (i.e. from smallest to largest). To sort in descending order, place - (the negative sign; the hyphen) in front of an argument to order. We can again compare this operation in dplyr and base R:

# Descending sort

# dplyr
desc_dep_delay_dplyr <- arrange(flights, desc(dep_delay))

# base R
desc_dep_delay_base <- flights[order(-flights$dep_delay),]

# Check dplyr – the data frame is sorted in descending order of dep_delay
desc_dep_delay_dplyr
#> # A tibble: 336,776 × 19
#>     year month   day dep_time sched_dep_time dep_delay arr_time sched_arr_time
#>    <int> <int> <int>    <int>          <int>     <dbl>    <int>          <int>
#>  1  2013     1     9      641            900      1301     1242           1530
#>  2  2013     6    15     1432           1935      1137     1607           2120
#>  3  2013     1    10     1121           1635      1126     1239           1810
#>  4  2013     9    20     1139           1845      1014     1457           2210
#>  5  2013     7    22      845           1600      1005     1044           1815
#>  6  2013     4    10     1100           1900       960     1342           2211
#>  7  2013     3    17     2321            810       911      135           1020
#>  8  2013     6    27      959           1900       899     1236           2226
#>  9  2013     7    22     2257            759       898      121           1026
#> 10  2013    12     5      756           1700       896     1058           2020
#> # … with 336,766 more rows, and 11 more variables: arr_delay <dbl>,
#> #   carrier <chr>, flight <int>, tailnum <chr>, origin <chr>, dest <chr>,
#> #   air_time <dbl>, distance <dbl>, hour <dbl>, minute <dbl>, time_hour <dttm>

# Check base – the data frame is sorted in descending order of dep_delay
desc_dep_delay_base
#> # A tibble: 336,776 × 19
#>     year month   day dep_time sched_dep_time dep_delay arr_time sched_arr_time
#>    <int> <int> <int>    <int>          <int>     <dbl>    <int>          <int>
#>  1  2013     1     9      641            900      1301     1242           1530
#>  2  2013     6    15     1432           1935      1137     1607           2120
#>  3  2013     1    10     1121           1635      1126     1239           1810
#>  4  2013     9    20     1139           1845      1014     1457           2210
#>  5  2013     7    22      845           1600      1005     1044           1815
#>  6  2013     4    10     1100           1900       960     1342           2211
#>  7  2013     3    17     2321            810       911      135           1020
#>  8  2013     6    27      959           1900       899     1236           2226
#>  9  2013     7    22     2257            759       898      121           1026
#> 10  2013    12     5      756           1700       896     1058           2020
#> # … with 336,766 more rows, and 11 more variables: arr_delay <dbl>,
#> #   carrier <chr>, flight <int>, tailnum <chr>, origin <chr>, dest <chr>,
#> #   air_time <dbl>, distance <dbl>, hour <dbl>, minute <dbl>, time_hour <dttm>
…
# Using dplyr

# Group by month and origin
by_month_origin <- group_by(flights, month, origin)

# Take the means
mean_month_origin_dplyr <- summarise(by_month_origin, MeanDelay = mean(arr_delay, na.rm = TRUE))
#> `summarise()` has grouped output by 'month'. You can override using the
#> `.groups` argument.

# Check the output
mean_month_origin_dplyr
#> # A tibble: 36 × 3
#> # Groups:   month [12]
#>    month origin MeanDelay
#>    <int> <chr>      <dbl>
#>  1     1 EWR        12.8 
#>  2     1 JFK         1.37
#>  3     1 LGA         3.38
#>  4     2 EWR         8.78
#>  5     2 JFK         4.39
#>  6     2 LGA         3.15
#>  7     3 EWR        10.6 
#>  8     3 JFK         2.58
#>  9     3 LGA         3.74
#> 10     4 EWR        14.1 
#> # … with 26 more rows
…
