R for Successful Student Projects 03 - Tabular Data Basics
…
library(readr)
read_csv("data/r4ssp_donations_data.csv")

## Rows: 50 Columns: 3

## ── Column specification ────────────────────────────────────────────────────────
## Delimiter: ","
## chr (1): Condition
## dbl (2): CollectorNumber, Amount

## 
## ℹ Use `spec()` to retrieve the full column specification for this data.
## ℹ Specify the column types or set `show_col_types = FALSE` to quiet this message.

## # A tibble: 50 × 3
##    CollectorNumber Amount Condition
##              <dbl>  <dbl> <chr>    
##  1               1   190. Puppy    
##  2               2   178. Puppy    
##  3               3   178. Puppy    
##  4               4   210. Puppy    
##  5               5   188. Puppy    
##  6               6   199. Puppy    
##  7               7   180. Puppy    
##  8               8   195. Puppy    
##  9               9   186. Puppy    
## 10              10   233. Puppy    
## # … with 40 more rows
…
## Rows: 50 Columns: 3

## ── Column specification ────────────────────────────────────────────────────────
## Delimiter: ","
## chr (1): Condition
## dbl (2): CollectorNumber, Amount

## 
## ℹ Use `spec()` to retrieve the full column specification for this data.
## ℹ Specify the column types or set `show_col_types = FALSE` to quiet this message.

# As always in R, we can display the contents of a variable by simply typing its name.
puppy_donations_data

## # A tibble: 50 × 3
##    CollectorNumber Amount Condition
##              <dbl>  <dbl> <chr>    
##  1               1   190. Puppy    
##  2               2   178. Puppy    
##  3               3   178. Puppy    
##  4               4   210. Puppy    
##  5               5   188. Puppy    
##  6               6   199. Puppy    
##  7               7   180. Puppy    
##  8               8   195. Puppy    
##  9               9   186. Puppy    
## 10              10   233. Puppy    
## # … with 40 more rows
…
##    Min. 1st Qu.  Median    Mean 3rd Qu.    Max. 
##   67.32   99.34  160.41  150.05  194.90  232.98

There are, literally, hundreds of interesting functions in R for performing summary analyses. Sadly, we do not have time to cover them all, but we encourage you to explore R textbooks and online resources to learn more about them.

Perform descriptive analyses on groups

We often wish to summarise our dependent variable for all the members of an experimental group. For example, in this study we might want to find the mean amount donated for just those collectors in the Puppy group. To do this, we first take a subset of the data frame. That is, we separate out only those rows that are in the group of interest. Then we can summarise individual columns exactly as we did above, operating on our partial data frame.

To take a subset of rows from a data frame, use function subset. This function takes two arguments: first, the name of the data frame from from which you are separating out rows; second, the criterion you wish to use to select your subset. In this example we wish to select out all the rows for which the Condition column value is “Puppy”. In R we describe this criterion with Condition == "Puppy". Note the double equal sign ==. This is very important. A single equal sign here means something else, and will not work at all. The complete code to select all the collectors who had puppies is:

subset(puppy_donations_data, Condition == "Puppy")

## # A tibble: 25 × 3
##    CollectorNumber Amount Condition
##              <dbl>  <dbl> <chr>    
##  1               1   190. Puppy    
##  2               2   178. Puppy    
##  3               3   178. Puppy    
##  4               4   210. Puppy    
##  5               5   188. Puppy    
##  6               6   199. Puppy    
##  7               7   180. Puppy    
##  8               8   195. Puppy    
##  9               9   186. Puppy    
## 10              10   233. Puppy    
## # … with 15 more rows

As always, it will make our code tidier to save the output in a named variable for later use.

puppies_only <- subset(puppy_donations_data, Condition == "Puppy")
puppies_only

## # A tibble: 25 × 3
##    CollectorNumber Amount Condition
##              <dbl>  <dbl> <chr>    
##  1               1   190. Puppy    
##  2               2   178. Puppy    
##  3               3   178. Puppy    
##  4               4   210. Puppy    
##  5               5   188. Puppy    
##  6               6   199. Puppy    
##  7               7   180. Puppy    
##  8               8   195. Puppy    
##  9               9   186. Puppy    
## 10              10   233. Puppy    
## # … with 15 more rows
…
