Zoom Notes 06: Tidying Data
…
# d)
rodents$plot <- as.numeric(rodents$plot)

# e)
plot1_2 <- rodents %>% 
  filter(plot ==1 | plot == 2)

plot_3 <- rodents %>% 
  filter(plot == 3) %>% 
  select(-genus) %>% 
  separate(species, into = c("genus", "species"), sep=" ")

rodents_clean <- rbind(plot1_2, plot_3)
rodents_clean
#> # A tibble: 41 × 7
#>     plot location dateCollected family       genus     species     weight
#>    <dbl> <chr>    <chr>         <chr>        <chr>     <chr>        <dbl>
#>  1     1 slope    01/09/14      Heteromyidae Dipodomys merriami        40
#>  2     1 slope    01/09/14      Heteromyidae Dipodomys merriami        36
#>  3     1 slope    01/09/14      Heteromyidae Dipodomys spectabilis    135
#>  4     1 rocks    01/09/14      Heteromyidae Dipodomys merriami        39
#>  5     1 grass    01/20/14      Heteromyidae Dipodomys merriami        43
#>  6     1 rocks    01/20/14      Heteromyidae Dipodomys spectabilis    144
#>  7     1 rocks    03/13/14      Heteromyidae Dipodomys merriami        51
#>  8     1 fence    03/13/14      Heteromyidae Dipodomys merriami        44
#>  9     1 fence    03/13/14      Heteromyidae Dipodomys spectabilis    146
#> 10     2 rocks    01/08/14      Cricetidae   Neotoma   albigula        NA
#> # ℹ 31 more rows
…
